San Jose Jazz Festival
2016-08-12

381 - Begin the Beguine
379 - Alright OK (Vocal)
430 - 920 Special
  8 - Hot Toddy
436 - Too Darn Hot (Vocal)
336 - Satin Doll
425 - Ya Gotta Try
368 - Autumn Leaves
364 - Stardust
301 - All of Me (Vocal)
391 - A Train
302 - Havana
312 - Fever (Vocal)
423 - September Song
431 - Flyin' Home
365 - On the Street Where you Live
433 - Almost Like Being in Love (Vocal)
 86 - After the Lovin
330 - Love For Sale
370 - Bare Necessities
353 - Willow Weep for Me
 23 - I Just Found out About Love (Vocal)

