San Carlos Farmers' Market
2018-12-03

    254 Let's Fall in Love
    438 Witchcraft (Stan)
     18 Moten Swing
    532 I've Got You Under My Skin (Stan)
    522 Cherokee
    352 It's Oh, So Nice
    188 Sweet Georgia
    498 Summer Samba
    304 Lover's Leap

    430 920 Special
     41 Fly Me to the Moon (Stan)
    528 The Fox
     86 After the Lovin'
    394 Springtime
    370 Bare Necessities
    514 March of the Toys
    530 I Believe In You (Stan)
    513 God Bless the Child
    434 'T Ain't Whatcha Do (Rob - vocal)

    525 Shorty George
    353 Willow Weep for Me
    529 It Happened in Monterey (Stan)
    337 Rent Party
    369 Ice Castles
    520 I Could have Danced
    164 Queen Bee
    305 It's About Swing
    300 Cheek to Cheek (Stan)
